(･o･;)
(・o・)
(゜o゜;
w(°ｏ°)w
(☉｡☉)!
(@_@)
ヽ((◎д◎))ゝ
＼(°o°)／
ヽ(｡◕o◕｡)ﾉ.
＼(◎o◎)／
ヾ(*’Ｏ’*)/
✧\(>o<)ﾉ✧
(ﾉ*0*)ﾉ
ヽ༼⁰o⁰；༽ノ
⋋✿ ⁰ o ⁰ ✿⋌
щ(゜ロ゜щ)
(ﾉﾟ0ﾟ)ﾉ~
ლ(^o^ლ)
(ﾟοﾟ人))
⊙.☉
(⑉⊙ȏ⊙)
(ʘᗩʘ’)
(‘◉⌓◉’)
⁄(⁄ ⁄•⁄-⁄•⁄ ⁄)⁄
(｡☬０☬｡)
(´⊙ω⊙`)！
(((;ꏿ_ꏿ;)))
(●__●)
(✿☉｡☉)
(>0<；)
༼⁰o⁰；༽
(╬⁽⁽ ⁰ ⁾⁾ Д ⁽⁽ ⁰ ⁾⁾)
